<?xml version="1.0" encoding="UTF-8"?>
<Project>
   <description></description>
   <name>apibelimob-katalon</name>
   <tag></tag>
   <UUID>ae5f92b7-64d5-48d9-9286-9ed34c10be12</UUID>
   <migratedVersion>5.7.0</migratedVersion>
   <pageLoadTimeout>0</pageLoadTimeout>
   <sourceContent>
      <sourceFolderList>
         <sourceFolderConfiguration>
            <url>Include/scripts/groovy</url>
         </sourceFolderConfiguration>
      </sourceFolderList>
      <systemFolderList>
         <systemFolderConfiguration>
            <url>Include/scripts/groovy</url>
         </systemFolderConfiguration>
         <systemFolderConfiguration>
            <url>Include/features</url>
         </systemFolderConfiguration>
      </systemFolderList>
   </sourceContent>
</Project>
