Suite/Test/Step Name,Browser,Description,Start time,End time,Duration,Status
Login,,,2018-09-07 17:46:34,2018-09-07 17:46:44,10.489s,FAILED
,,,,,,
Test Cases/Auth/Login,,,2018-09-07 17:46:34,2018-09-07 17:46:44,10.001s,FAILED
"Statement - response = com.kms.katalon.core.webservice.keyword.WSBuiltInKeywords.sendRequest(com.kms.katalon.core.testobject.ObjectRepository.findTestObject(Auth/Login, [email:, password:, url:internal.GlobalVariable.apiurl]))",,,2018-09-07 17:46:34,2018-09-07 17:46:44,9.530s,PASSED
verifyResponseStatusCode,,,2018-09-07 17:46:44,2018-09-07 17:46:44,0.051s,FAILED
