Suite/Test/Step Name,Browser,Description,Start time,End time,Duration,Status
master,,,2018-09-08 11:33:54,2018-09-08 11:34:17,22.736s,FAILED
,,,,,,
Test Cases/Masterdata/Bank,,,2018-09-08 11:33:55,2018-09-08 11:33:57,1.979s,PASSED
"Statement - response = com.kms.katalon.core.webservice.keyword.WSBuiltInKeywords.sendRequest(com.kms.katalon.core.testobject.ObjectRepository.findTestObject(Master Data/Bank, [url:https://new-m88inventoryappdev.azurewebsites.net/api]))",,,2018-09-08 11:33:55,2018-09-08 11:33:56,1.545s,PASSED
verifyResponseStatusCode,,,2018-09-08 11:33:57,2018-09-08 11:33:57,0.031s,PASSED
verifyElementPropertyValue,,,2018-09-08 11:33:57,2018-09-08 11:33:57,0.077s,PASSED
,,,,,,
Test Cases/Masterdata/Lead Reason,,,2018-09-08 11:33:57,2018-09-08 11:34:16,19.528s,FAILED
"Statement - response = com.kms.katalon.core.webservice.keyword.WSBuiltInKeywords.sendRequest(com.kms.katalon.core.testobject.ObjectRepository.findTestObject(Master Data/Lead Reason, [url:internal.GlobalVariable.apiurl]))",,,2018-09-08 11:33:57,2018-09-08 11:34:16,19.323s,FAILED
,,,,,,
Test Cases/Masterdata/Member Position,,,2018-09-08 11:34:16,2018-09-08 11:34:17,0.709s,PASSED
"Statement - response = com.kms.katalon.core.webservice.keyword.WSBuiltInKeywords.sendRequest(com.kms.katalon.core.testobject.ObjectRepository.findTestObject(Master Data/Member Position, [url:internal.GlobalVariable.apiurl]))",,,2018-09-08 11:34:16,2018-09-08 11:34:17,0.559s,PASSED
verifyResponseStatusCode,,,2018-09-08 11:34:17,2018-09-08 11:34:17,0.002s,PASSED
verifyElementPropertyValue,,,2018-09-08 11:34:17,2018-09-08 11:34:17,0.018s,PASSED
