Suite/Test/Step Name,Browser,Description,Start time,End time,Duration,Status
Login,,,2018-09-09 08:09:22,2018-09-09 08:09:26,4.581s,PASSED
,,,,,,
Test Cases/Auth/Login,,,2018-09-09 08:09:22,2018-09-09 08:09:26,4.140s,PASSED
"Statement - response = com.kms.katalon.core.webservice.keyword.WSBuiltInKeywords.sendRequest(com.kms.katalon.core.testobject.ObjectRepository.findTestObject(Auth/Login, [email:com.kms.katalon.core.testdata.TestDataFactory.findTestData(Auth/Data Login).getValue(1, 1), password:com.kms.katalon.core.testdata.TestDataFactory.findTestData(Auth/Data Login).getValue(2, 1), ... ]))",,,2018-09-09 08:09:22,2018-09-09 08:09:26,3.692s,PASSED
verifyResponseStatusCode,,,2018-09-09 08:09:26,2018-09-09 08:09:26,0.045s,PASSED
verifyElementPropertyValue,,,2018-09-09 08:09:26,2018-09-09 08:09:26,0.060s,PASSED
