Suite/Test/Step Name,Browser,Description,Start time,End time,Duration,Status
master,,,2018-09-08 11:32:21,2018-09-08 11:32:44,23.281s,FAILED
,,,,,,
Test Cases/Masterdata/Bank,,,2018-09-08 11:32:21,2018-09-08 11:32:23,2.180s,FAILED
"Statement - response = com.kms.katalon.core.webservice.keyword.WSBuiltInKeywords.sendRequest(com.kms.katalon.core.testobject.ObjectRepository.findTestObject(Master Data/Bank, [url:https://new-m88inventoryappdev.azurewebsites.net/api]))",,,2018-09-08 11:32:22,2018-09-08 11:32:23,1.655s,PASSED
verifyResponseStatusCode,,,2018-09-08 11:32:23,2018-09-08 11:32:23,0.049s,PASSED
verifyElementPropertyValue,,,2018-09-08 11:32:23,2018-09-08 11:32:23,0.086s,FAILED
,,,,,,
Test Cases/Masterdata/Lead Reason,,,2018-09-08 11:32:23,2018-09-08 11:32:43,19.652s,FAILED
"Statement - response = com.kms.katalon.core.webservice.keyword.WSBuiltInKeywords.sendRequest(com.kms.katalon.core.testobject.ObjectRepository.findTestObject(Master Data/Lead Reason, [url:internal.GlobalVariable.apiurl]))",,,2018-09-08 11:32:24,2018-09-08 11:32:43,19.414s,FAILED
,,,,,,
Test Cases/Masterdata/Member Position,,,2018-09-08 11:32:43,2018-09-08 11:32:44,1.004s,FAILED
"Statement - response = com.kms.katalon.core.webservice.keyword.WSBuiltInKeywords.sendRequest(com.kms.katalon.core.testobject.ObjectRepository.findTestObject(Master Data/Member Position, [url:internal.GlobalVariable.apiurl]))",,,2018-09-08 11:32:43,2018-09-08 11:32:44,0.742s,PASSED
verifyResponseStatusCode,,,2018-09-08 11:32:44,2018-09-08 11:32:44,0.005s,PASSED
verifyElementPropertyValue,,,2018-09-08 11:32:44,2018-09-08 11:32:44,0.067s,FAILED
